<?xml version="1.0" encoding="UTF-8" standalone="no"?>
<svg
   xmlns:dc="http://purl.org/dc/elements/1.1/"
   xmlns:cc="http://creativecommons.org/ns#"
   xmlns:rdf="http://www.w3.org/1999/02/22-rdf-syntax-ns#"
   xmlns:svg="http://www.w3.org/2000/svg"
   xmlns="http://www.w3.org/2000/svg"
   xmlns:sodipodi="http://sodipodi.sourceforge.net/DTD/sodipodi-0.dtd"
   xmlns:inkscape="http://www.inkscape.org/namespaces/inkscape"
   width="1080"
   height="1080"
   viewBox="0 0 285.74999 285.75001"
   version="1.1"
   id="svg1255"
   inkscape:version="1.0.2 (e86c870879, 2021-01-15)"
   sodipodi:docname="mag-insurance-logo.svg">
  <defs
     id="defs1249">
    <clipPath
       clipPathUnits="userSpaceOnUse"
       id="clipPath22">
      <path
         d="M 0,112 H 147.5 V 0 H 0 Z"
         id="path20" />
    </clipPath>
    <clipPath
       clipPathUnits="userSpaceOnUse"
       id="clipPath22-6">
      <path
         d="m 3176.03,4297.78 c -403.67,0 -730.88,-327.23 -730.88,-730.87 0,-403.65 327.21,-730.88 730.88,-730.88 403.64,0 730.85,327.23 730.85,730.88 0,403.64 -327.21,730.87 -730.85,730.87 z"
         id="path20-9" />
    </clipPath>
    <radialGradient
       fx="0"
       fy="0"
       cx="0"
       cy="0"
       r="1"
       gradientUnits="userSpaceOnUse"
       gradientTransform="matrix(516.803,-516.803,-516.803,-516.803,3176.02,3566.9)"
       spreadMethod="pad"
       id="radialGradient34">
      <stop
         style="stop-opacity:1;stop-color:#fffbf0"
         offset="0"
         id="stop24" />
      <stop
         style="stop-opacity:1;stop-color:#debf52"
         offset="0.284553"
         id="stop26" />
      <stop
         style="stop-opacity:1;stop-color:#bf8f17"
         offset="0.601626"
         id="stop28" />
      <stop
         style="stop-opacity:1;stop-color:#906618"
         offset="0.804878"
         id="stop30" />
      <stop
         style="stop-opacity:1;stop-color:#614615"
         offset="1"
         id="stop32" />
    </radialGradient>
    <radialGradient
       fx="0"
       fy="0"
       cx="0"
       cy="0"
       r="1"
       gradientUnits="userSpaceOnUse"
       gradientTransform="matrix(785.581,-785.581,-785.581,-785.581,3024.17,3892.41)"
       spreadMethod="pad"
       id="radialGradient48">
      <stop
         style="stop-opacity:1;stop-color:#fffbf0"
         offset="0"
         id="stop38" />
      <stop
         style="stop-opacity:1;stop-color:#debf52"
         offset="0.349594"
         id="stop40" />
      <stop
         style="stop-opacity:1;stop-color:#bf8f17"
         offset="0.601626"
         id="stop42" />
      <stop
         style="stop-opacity:1;stop-color:#906618"
         offset="0.804878"
         id="stop44" />
      <stop
         style="stop-opacity:1;stop-color:#614615"
         offset="1"
         id="stop46" />
    </radialGradient>
    <clipPath
       clipPathUnits="userSpaceOnUse"
       id="clipPath58">
      <path
         d="m 1735.41,2334.63 c -205.47,363.83 -395.14,767.21 -474.04,1082.28 -36.47,145.58 -43.48,275.22 -42.66,360.68 -128.08,-213.35 -201.78,-463.07 -201.78,-730.03 0,-5.3 0.15,-10.56 0.2,-15.85 82.55,-311.37 264.72,-802.58 645.25,-1174.65 88.26,-57.58 183.28,-105.64 283.67,-142.66 l 206.8,-58.78 c 54.3,-11.03 109.73,-18.91 166.09,-23.57 -120.3,78.47 -337.79,267.46 -583.53,702.58 z"
         id="path56" />
    </clipPath>
    <radialGradient
       fx="0"
       fy="0"
       cx="0"
       cy="0"
       r="1"
       gradientUnits="userSpaceOnUse"
       gradientTransform="matrix(2140.42,0,0,-2140.42,2002.42,3482.54)"
       spreadMethod="pad"
       id="radialGradient72">
      <stop
         style="stop-opacity:1;stop-color:#e5f2eb"
         offset="0"
         id="stop60" />
      <stop
         style="stop-opacity:1;stop-color:#8bc5ae"
         offset="0.178862"
         id="stop62" />
      <stop
         style="stop-opacity:1;stop-color:#45a78c"
         offset="0.418699"
         id="stop64" />
      <stop
         style="stop-opacity:1;stop-color:#287b5b"
         offset="0.601626"
         id="stop66" />
      <stop
         style="stop-opacity:1;stop-color:#1b543f"
         offset="0.804878"
         id="stop68" />
      <stop
         style="stop-opacity:1;stop-color:#14402f"
         offset="1"
         id="stop70" />
    </radialGradient>
    <clipPath
       clipPathUnits="userSpaceOnUse"
       id="clipPath82">
      <path
         d="m 3016.05,2094.89 c -144.22,163.7 -411.69,496.31 -578.66,837.39 -157.86,322.48 -555.85,1113.91 -404.41,1477.24 -175.05,-51.91 -336.01,-136.57 -475.71,-247 -20,-62.28 -34.73,-162.94 -3.48,-305.77 57.59,-263.17 331.15,-1108.66 720.53,-1613.56 155.41,-201.51 320.97,-419.28 462.5,-513.76 32.51,-21.7 63.91,-36.84 93.1,-47.35 168.68,48.4 324.49,127.21 461.13,230.12 -25.45,8.43 -52.73,18.99 -80.49,32.24 -68.89,32.87 -140.82,89.53 -194.51,150.45 z"
         id="path80" />
    </clipPath>
    <radialGradient
       fx="0"
       fy="0"
       cx="0"
       cy="0"
       r="1"
       gradientUnits="userSpaceOnUse"
       gradientTransform="matrix(2140.42,0,0,-2140.42,2002.42,3482.54)"
       spreadMethod="pad"
       id="radialGradient96">
      <stop
         style="stop-opacity:1;stop-color:#e5f2eb"
         offset="0"
         id="stop84" />
      <stop
         style="stop-opacity:1;stop-color:#8bc5ae"
         offset="0.178862"
         id="stop86" />
      <stop
         style="stop-opacity:1;stop-color:#45a78c"
         offset="0.418699"
         id="stop88" />
      <stop
         style="stop-opacity:1;stop-color:#287b5b"
         offset="0.601626"
         id="stop90" />
      <stop
         style="stop-opacity:1;stop-color:#1b543f"
         offset="0.804878"
         id="stop92" />
      <stop
         style="stop-opacity:1;stop-color:#14402f"
         offset="1"
         id="stop94" />
    </radialGradient>
    <clipPath
       clipPathUnits="userSpaceOnUse"
       id="clipPath106">
      <path
         d="m 3691.38,2836.03 c -124.12,113.47 -443.34,547.55 -536.67,804.21 -66.19,182.04 -153.29,408.02 -146.85,554.1 1.25,28.33 6.51,66.74 26.85,78.4 31.14,17.87 35.54,15.97 53.36,20.35 4.13,1.01 7.5,1.25 15.07,1.09 -164.06,84.83 -361.05,154.56 -554.64,169.54 -37.13,-53.87 -62.35,-158.25 -7.12,-360.14 106.67,-390 338.42,-1131.36 862.55,-1650.69 0,0 110.7,-135.56 259.13,-123.54 87.01,148.18 147.91,313.51 176.41,489.72 -50.44,-20.48 -103.84,-23.48 -148.09,16.96 z"
         id="path104" />
    </clipPath>
    <radialGradient
       fx="0"
       fy="0"
       cx="0"
       cy="0"
       r="1"
       gradientUnits="userSpaceOnUse"
       gradientTransform="matrix(2140.42,0,0,-2140.42,2002.42,3482.54)"
       spreadMethod="pad"
       id="radialGradient120">
      <stop
         style="stop-opacity:1;stop-color:#e5f2eb"
         offset="0"
         id="stop108" />
      <stop
         style="stop-opacity:1;stop-color:#8bc5ae"
         offset="0.178862"
         id="stop110" />
      <stop
         style="stop-opacity:1;stop-color:#45a78c"
         offset="0.418699"
         id="stop112" />
      <stop
         style="stop-opacity:1;stop-color:#287b5b"
         offset="0.601626"
         id="stop114" />
      <stop
         style="stop-opacity:1;stop-color:#1b543f"
         offset="0.804878"
         id="stop116" />
      <stop
         style="stop-opacity:1;stop-color:#14402f"
         offset="1"
         id="stop118" />
    </radialGradient>
    <clipPath
       clipPathUnits="userSpaceOnUse"
       id="clipPath18">
      <path
         d="m 257.635,415.086 c -22.327,-13.993 -37.182,-38.831 -37.182,-67.13 v 0 c 0,-43.727 35.453,-79.184 79.19,-79.184 v 0 c 18.403,0 35.344,6.285 48.784,16.824 v 0 c -0.753,-2.049 -1.58,-4.058 -2.464,-6.034 v 0 c 5.418,12.059 8.431,25.419 8.431,39.487 v 0 c 0.006,50.351 -38.584,91.686 -87.803,96.037 v 0 z m -8.31,0 C 202.9,410.956 165.935,373.9 161.933,327.429 v 0 -16.758 c 4.248,-49.313 45.632,-88.025 96.051,-88.025 v 0 c 29.634,0 56.144,13.374 73.832,34.398 v 0 c -10.07,-3.554 -20.893,-5.504 -32.173,-5.504 v 0 c -53.255,0 -96.416,43.167 -96.416,96.416 v 0 c 0,23.622 8.492,45.242 22.591,62.005 v 0 c 7.469,2.639 15.36,4.395 23.539,5.125 v 0 z m 96.539,-135.734 c 0.026,0.039 0.039,0.079 0.059,0.118 v 0 c -0.02,-0.039 -0.033,-0.079 -0.059,-0.118"
         id="path16" />
    </clipPath>
    <clipPath
       clipPathUnits="userSpaceOnUse"
       id="clipPath28">
      <path
         d="M 161.93374,222.26821 V 415.08852 H 354.7606 V 222.26821 Z"
         id="path26" />
    </clipPath>
    <linearGradient
       x1="0"
       y1="0"
       x2="1"
       y2="0"
       gradientUnits="userSpaceOnUse"
       gradientTransform="matrix(0,192.82031,192.82031,0,258.3437,222.27496)"
       spreadMethod="pad"
       id="linearGradient34">
      <stop
         style="stop-opacity:1;stop-color:#6c211a"
         offset="0"
         id="stop30-7" />
      <stop
         style="stop-opacity:1;stop-color:#de1a33"
         offset="1"
         id="stop32-7" />
    </linearGradient>
    <clipPath
       clipPathUnits="userSpaceOnUse"
       id="clipPath44">
      <path
         d="M 0,595.28 H 538.58 V 0 H 0 Z"
         id="path42" />
    </clipPath>
    <clipPath
       clipPathUnits="userSpaceOnUse"
       id="clipPath56">
      <path
         d="m 249.359,415.086 c -8.181,-0.729 -16.073,-2.486 -23.541,-5.125 v 0 C 213.402,395.2 205.335,376.671 203.585,356.325 v 0 -16.739 c 4.243,-49.328 45.624,-88.046 96.058,-88.046 v 0 c 11.28,0 22.103,1.95 32.173,5.504 v 0 c 5.643,6.714 10.387,14.22 14.048,22.308 v 0 c 0.026,0.039 0.039,0.079 0.059,0.118 v 0 c 0.013,0.033 0.026,0.066 0.04,0.092 v 0 c 0.884,1.976 1.711,3.985 2.464,6.034 v 0 c -13.44,-10.539 -30.381,-16.824 -48.784,-16.824 v 0 c -43.737,0 -79.19,35.457 -79.19,79.184 v 0 c 0,28.299 14.855,53.137 37.182,67.13 v 0 z"
         id="path54" />
    </clipPath>
    <clipPath
       clipPathUnits="userSpaceOnUse"
       id="clipPath66">
      <path
         d="M 203.58424,251.15599 V 415.08507 H 348.78449 V 251.15599 Z"
         id="path64" />
    </clipPath>
    <linearGradient
       x1="0"
       y1="0"
       x2="1"
       y2="0"
       gradientUnits="userSpaceOnUse"
       gradientTransform="matrix(0,192.82031,192.82031,0,258.34212,222.27151)"
       spreadMethod="pad"
       id="linearGradient72">
      <stop
         style="stop-opacity:1;stop-color:#4b1e18"
         offset="0"
         id="stop68-5" />
      <stop
         style="stop-opacity:1;stop-color:#a81c26"
         offset="1"
         id="stop70-4" />
    </linearGradient>
    <linearGradient
       x1="0"
       y1="0"
       x2="1"
       y2="0"
       gradientUnits="userSpaceOnUse"
       gradientTransform="matrix(0,192.8125,-192.8125,0,297.51608,262.17871)"
       spreadMethod="pad"
       id="linearGradient98">
      <stop
         style="stop-opacity:1;stop-color:#dbdad8"
         offset="0"
         id="stop88-8" />
      <stop
         style="stop-opacity:1;stop-color:#bbbab8"
         offset="0.08791"
         id="stop90-1" />
      <stop
         style="stop-opacity:1;stop-color:#444343"
         offset="0.4"
         id="stop92-2" />
      <stop
         style="stop-opacity:1;stop-color:#eeefef"
         offset="0.5"
         id="stop94-8" />
      <stop
         style="stop-opacity:1;stop-color:#d0cfce"
         offset="1"
         id="stop96" />
    </linearGradient>
    <linearGradient
       x1="0"
       y1="0"
       x2="1"
       y2="0"
       gradientUnits="userSpaceOnUse"
       gradientTransform="matrix(0,175.2242,-175.2242,0,297.51483,270.96579)"
       spreadMethod="pad"
       id="linearGradient124">
      <stop
         style="stop-opacity:1;stop-color:#5b5d5d"
         offset="0"
         id="stop114-9" />
      <stop
         style="stop-opacity:1;stop-color:#b0afae"
         offset="0.27473"
         id="stop116-3" />
      <stop
         style="stop-opacity:1;stop-color:#eeefef"
         offset="0.5"
         id="stop118-6" />
      <stop
         style="stop-opacity:1;stop-color:#b0afae"
         offset="0.86264"
         id="stop120" />
      <stop
         style="stop-opacity:1;stop-color:#444343"
         offset="1"
         id="stop122" />
    </linearGradient>
    <clipPath
       clipPathUnits="userSpaceOnUse"
       id="clipPath134">
      <path
         d="M 0,595.28 H 538.58 V 0 H 0 Z"
         id="path132" />
    </clipPath>
    <linearGradient
       id="linear-gradient"
       y1="37.560001"
       x2="226.05"
       y2="37.560001"
       gradientUnits="userSpaceOnUse">
      <stop
         offset="0"
         stop-color="#00b3e0"
         id="stop4" />
      <stop
         offset="1"
         stop-color="#0064af"
         id="stop6" />
    </linearGradient>
    <linearGradient
       id="linear-gradient-8"
       y1="37.560001"
       x2="226.05"
       y2="37.560001"
       gradientUnits="userSpaceOnUse"
       gradientTransform="matrix(0.26458333,0,0,0.26458333,74.507484,118.23653)">
      <stop
         offset="0"
         stop-color="#00b3e0"
         id="stop4-0" />
      <stop
         offset="1"
         stop-color="#0064af"
         id="stop6-2" />
    </linearGradient>
  </defs>
  <sodipodi:namedview
     id="base"
     pagecolor="#ffffff"
     bordercolor="#666666"
     borderopacity="1.0"
     inkscape:pageopacity="0.0"
     inkscape:pageshadow="2"
     inkscape:zoom="0.37501857"
     inkscape:cx="497.93799"
     inkscape:cy="560"
     inkscape:document-units="px"
     inkscape:current-layer="layer1"
     inkscape:document-rotation="0"
     showgrid="false"
     units="px"
     showborder="false"
     inkscape:window-width="1366"
     inkscape:window-height="711"
     inkscape:window-x="0"
     inkscape:window-y="0"
     inkscape:window-maximized="1"
     showguides="true"
     inkscape:guide-bbox="true">
    <sodipodi:guide
       position="0,285.75"
       orientation="0,1080"
       id="guide1818" />
    <sodipodi:guide
       position="285.75,285.75"
       orientation="1080,0"
       id="guide1820" />
    <sodipodi:guide
       position="285.75,0"
       orientation="0,-1080"
       id="guide1822" />
    <sodipodi:guide
       position="0,0"
       orientation="-1080,0"
       id="guide1824" />
    <sodipodi:guide
       position="18.701084,122.71245"
       orientation="1,0"
       id="guide902" />
    <sodipodi:guide
       position="267.04891,167.0362"
       orientation="1,0"
       id="guide904" />
  </sodipodi:namedview>
  <metadata
     id="metadata1252">
    <rdf:RDF>
      <cc:Work
         rdf:about="">
        <dc:format>image/svg+xml</dc:format>
        <dc:type
           rdf:resource="http://purl.org/dc/dcmitype/StillImage" />
        <dc:title></dc:title>
      </cc:Work>
    </rdf:RDF>
  </metadata>
  <g
     inkscape:label="Layer 1"
     inkscape:groupmode="layer"
     id="layer1">
    <g
       id="g1614"
       transform="matrix(4.1516404,0,0,4.1516404,-290.6272,-407.78999)">
      <path
         class="cls-1"
         d="m 113.66582,130.7328 -9.11755,2.91042 a 0.17727083,0.17727083 0 0 0 -0.10583,0.0979 l -1.54252,3.81 a 0.17197916,0.17197916 0 0 0 0.21431,0.22754 l 8.03804,-2.60879 0.91017,2.47914 a 0.174625,0.174625 0 0 0 0.1614,0.11113 h 4.08781 a 0.17197916,0.17197916 0 0 0 0.15875,-0.23284 l -2.59292,-6.68866 a 0.174625,0.174625 0 0 0 -0.16139,-0.10848 h -0.0529 M 89.668108,118.58049 a 0.16933333,0.16933333 0 0 0 -0.15875,0.11113 l -4.616979,10.12825 -4.619625,-10.12825 a 0.16933333,0.16933333 0 0 0 -0.15875,-0.11113 h -5.434541 a 0.17197916,0.17197916 0 0 0 -0.171979,0.18521 v 18.83039 a 0.17197916,0.17197916 0 0 0 0.171979,0.17198 h 3.741208 a 0.17197916,0.17197916 0 0 0 0.171979,-0.17198 v -13.63662 l 4.7625,11.35856 a 0.1666875,0.1666875 0 0 0 0.148167,0.11642 h 2.767541 a 0.17197916,0.17197916 0 0 0 0.15875,-0.10848 l 4.7625,-11.35856 v 13.62604 a 0.174625,0.174625 0 0 0 0.17198,0.17462 h 3.780895 a 0.17197916,0.17197916 0 0 0 0.169334,-0.17198 V 118.7657 a 0.17197916,0.17197916 0 0 0 -0.169334,-0.18521 z m 14.552082,0 a 0.174625,0.174625 0 0 0 -0.16139,0.11113 l -7.283983,18.84362 a 0.17197916,0.17197916 0 0 0 0.15875,0.23283 h 3.831163 l 2.38125,-5.82083 3.52161,-9.21279 2.84427,7.45596 a 0.16933333,0.16933333 0 0 0 0.21431,0.10583 l 3.34433,-1.08479 a 0.17197916,0.17197916 0 0 0 0.10848,-0.2249 l -3.91054,-10.29493 a 0.16933333,0.16933333 0 0 0 -0.15875,-0.11113 z m 11.71311,9.57792 c 0,6.04043 4.6011,9.95362 10.21027,9.95362 a 10.641542,10.641542 0 0 0 8.1227,-3.57452 0.174625,0.174625 0 0 0 0.045,-0.11642 v -7.69937 a 0.16933333,0.16933333 0 0 0 -0.16933,-0.17198 h -6.3844 c -0.0952,0 -1.29645,3.3364 -1.29645,3.3364 a 0.17197916,0.17197916 0 0 0 0.17197,0.17198 h 3.65919 v 2.93422 a 6.5008124,6.5008124 0 0 1 -4.14337,1.4658 c -3.48192,0 -6.01134,-2.67494 -6.01134,-6.29973 0,-3.62479 2.52413,-6.29709 6.01134,-6.29709 a 5.4504166,5.4504166 0 0 1 3.67771,1.4023 0.16933333,0.16933333 0 0 0 0.16404,0.0344 l 3.61421,-1.1721 a 0.174625,0.174625 0 0 0 0.0873,-0.26459 c -1.50548,-2.01083 -3.91054,-3.62479 -7.54327,-3.62479 -5.60388,0 -10.21027,3.85498 -10.21027,9.92188"
         id="path13"
         style="fill:url(#linear-gradient-8);stroke-width:0.264583" />
      <path
         class="cls-2"
         d="m 107.15707,146.50726 a 0.18785416,0.18785416 0 0 1 -0.0847,-0.16669 0.20902083,0.20902083 0 0 1 0.21167,-0.21695 0.1905,0.1905 0 0 1 0.13229,0.0503 1.7488958,1.7488958 0 0 0 1.21708,0.46302 c 0.52917,0 0.8599,-0.26459 0.8599,-0.66146 0,-0.35983 -0.19315,-0.56092 -1.00277,-0.73819 -0.889,-0.19314 -1.29646,-0.48419 -1.29646,-1.12183 0,-0.6059 0.52916,-1.05833 1.27,-1.05833 a 1.9314583,1.9314583 0 0 1 1.23296,0.35454 0.23547916,0.23547916 0 0 1 0.0953,0.17727 0.20902083,0.20902083 0 0 1 -0.20902,0.21166 0.206375,0.206375 0 0 1 -0.127,-0.037 1.6113125,1.6113125 0 0 0 -1.00013,-0.34131 c -0.50535,0 -0.82021,0.26458 -0.82021,0.62971 0,0.36777 0.19315,0.57679 1.05834,0.75671 0.86518,0.17991 1.25677,0.50535 1.25677,1.10066 0,0.66675 -0.55034,1.10067 -1.32292,1.10067 a 2.2013333,2.2013333 0 0 1 -1.4605,-0.52917 m 3.87085,0.49477 a 0.21695833,0.21695833 0 0 1 -0.21431,-0.22225 v -3.43958 a 0.21695833,0.21695833 0 0 1 0.21431,-0.22225 h 2.39977 a 0.201085,0.201085 0 0 1 0,0.40217 h -2.18016 v 1.32291 h 1.93146 a 0.20108333,0.20108333 0 0 1 0,0.39953 h -1.93146 v 1.3626 h 2.20662 a 0.19579166,0.19579166 0 0 1 0.19844,0.19844 0.1984375,0.1984375 0 0 1 -0.19844,0.20108 z m 3.30994,-1.9341 a 1.9446875,1.9446875 0 0 1 1.93411,-2.01083 2.0293541,2.0293541 0 0 1 1.32291,0.41804 0.20902083,0.20902083 0 0 1 0.09,0.17727 0.21166666,0.21166666 0 0 1 -0.35454,0.16669 1.6007291,1.6007291 0 0 0 -1.05833,-0.35719 c -0.85461,0 -1.4658,0.73025 -1.4658,1.5875 0,0.92869 0.59002,1.61925 1.52665,1.61925 a 1.8044583,1.8044583 0 0 0 1.1139,-0.38894 v -0.96837 h -1.03717 a 0.19579166,0.19579166 0 0 1 -0.19315,-0.19315 0.1984375,0.1984375 0 0 1 0.19315,-0.20108 h 1.21444 a 0.21695833,0.21695833 0 0 1 0.21431,0.22225 v 1.18533 a 0.29897916,0.29897916 0 0 1 -0.14817,0.26458 2.3362708,2.3362708 0 0 1 -1.39964,0.47361 c -1.21444,0 -1.96321,-0.889 -1.96321,-2.00025 m 4.445,0.30956 v -2.06639 a 0.21695833,0.21695833 0 1 1 0.43391,0 v 2.03993 c 0,0.84402 0.44715,1.32292 1.18005,1.32292 0.73289,0 1.16416,-0.43127 1.16416,-1.28323 v -2.07962 a 0.2143125,0.2143125 0 0 1 0.21961,-0.22225 0.21960416,0.21960416 0 0 1 0.21695,0.22225 v 2.03464 c 0,1.13771 -0.64558,1.72244 -1.61131,1.72244 -0.96573,0 -1.60337,-0.59002 -1.60337,-1.69069 m 4.24656,-2.03994 a 0.21695833,0.21695833 0 0 1 0.21431,-0.22225 h 1.44463 a 1.5160625,1.5160625 0 0 1 1.09802,0.38894 1.0583333,1.0583333 0 0 1 0.29633,0.76729 c 0,0.64029 -0.42862,1.01336 -1.02923,1.12977 l 0.95779,1.24355 a 0.24341666,0.24341666 0 0 1 0.0714,0.16139 0.22754166,0.22754166 0 0 1 -0.2196,0.21696 0.26458333,0.26458333 0 0 1 -0.20373,-0.11642 l -1.08744,-1.42346 h -1.11654 v 1.32292 a 0.21696,0.21696 0 1 1 -0.43392,0 z m 1.61925,1.76213 c 0.57415,0 0.99483,-0.29898 0.99483,-0.79375 0,-0.48419 -0.36512,-0.76729 -0.98954,-0.76729 h -1.19856 v 1.5875 z m 2.19604,-0.0265 a 1.9685,1.9685 0 1 1 3.937,0 1.9685,1.9685 0 1 1 -3.937,0 m 3.48456,0 a 1.5425208,1.5425208 0 0 0 -1.52135,-1.60602 1.524,1.524 0 0 0 -1.51077,1.5875 1.5425208,1.5425208 0 0 0 1.52135,1.60867 1.5213541,1.5213541 0 0 0 1.51077,-1.5875 m 1.20915,1.46314 a 0.18520833,0.18520833 0 0 1 -0.082,-0.16669 0.20902083,0.20902083 0 0 1 0.20902,-0.21695 0.18520833,0.18520833 0 0 1 0.13229,0.0503 1.7568333,1.7568333 0 0 0 1.21973,0.46302 c 0.52917,0 0.8599,-0.26459 0.8599,-0.66146 0,-0.35983 -0.19315,-0.56092 -1.00542,-0.73819 -0.88635,-0.19314 -1.29381,-0.48419 -1.29381,-1.12183 0,-0.6059 0.52916,-1.05833 1.26735,-1.05833 a 1.9393958,1.9393958 0 0 1 1.23031,0.38364 0.24341666,0.24341666 0 0 1 0.0926,0.17727 0.20902083,0.20902083 0 0 1 -0.20902,0.21167 0.21166666,0.21166666 0 0 1 -0.127,-0.037 1.6086666,1.6086666 0 0 0 -0.99748,-0.34132 c -0.508,0 -0.82286,0.26459 -0.82286,0.62971 0,0.36777 0.19315,0.57679 1.05834,0.75671 0.86518,0.17992 1.25677,0.50536 1.25677,1.10067 0,0.66675 -0.55034,1.10066 -1.32292,1.10066 a 2.2092708,2.2092708 0 0 1 -1.4605,-0.52916"
         id="path15"
         style="fill:#425161;stroke-width:0.264583" />
    </g>
  </g>
</svg>
